<svg xmlns="http://www.w3.org/2000/svg" xmlns:xlink="http://www.w3.org/1999/xlink" width="141" height="139"
     viewBox="0 0 141 139">
    <defs>
        <clipPath id="a">
            <rect width="141" height="139" rx="6" fill="#fff"/>
        </clipPath>
        <linearGradient id="b" x1="0.5" y1="1" x2="0.5" gradientUnits="objectBoundingBox">
            <stop offset="0" stop-color="gray" stop-opacity="0.251"/>
            <stop offset="0.54" stop-color="gray" stop-opacity="0.122"/>
            <stop offset="1" stop-color="gray" stop-opacity="0.102"/>
        </linearGradient>
        <linearGradient id="c" x1="7.8" y1="22.569" x2="7.8" y2="21.562" xlink:href="#b"/>
        <linearGradient id="d" x1="10.897" y1="33.438" x2="10.897" y2="32.452" xlink:href="#b"/>
        <linearGradient id="e" x1="6.632" y1="23.498" x2="6.632" y2="22.491" xlink:href="#b"/>
        <linearGradient id="f" x1="6.008" y1="26.1" x2="6.008" y2="25.093" xlink:href="#b"/>
        <linearGradient id="g" x1="11.623" y1="33.309" x2="11.623" y2="32.322" xlink:href="#b"/>
        <linearGradient id="h" x1="12.431" y1="29.02" x2="12.431" y2="28.034" xlink:href="#b"/>
        <linearGradient id="i" x1="11.313" y1="29.417" x2="11.313" y2="28.431" xlink:href="#b"/>
        <linearGradient id="j" x1="10.236" y1="27.427" x2="10.236" y2="26.441" xlink:href="#b"/>
        <linearGradient id="k" x1="7.653" y1="23.243" x2="7.653" y2="22.23" xlink:href="#b"/>
        <linearGradient id="l" x1="3.07" y1="11.566" x2="3.07" y2="10.532" xlink:href="#b"/>
        <linearGradient id="m" x1="1.664" y1="6.158" x2="1.664" y2="5.134" xlink:href="#b"/>
        <linearGradient id="n" x1="3.627" y1="10.765" x2="3.627" y2="9.763" xlink:href="#b"/>
        <linearGradient id="o" x1="3.611" y1="10.786" x2="3.611" y2="9.783" xlink:href="#b"/>
        <linearGradient id="p" x1="7.529" y1="22.952" x2="7.529" y2="21.939" xlink:href="#b"/>
        <linearGradient id="q" x1="7.548" y1="23.5" x2="7.548" y2="22.486" xlink:href="#b"/>
    </defs>
    <g clip-path="url(#a)">
        <g transform="translate(-20 -46.594)">
            <rect width="105.372" height="16.008" transform="translate(24.578 314.103)" fill="#4d8af0"/>
            <path d="M20.975,235.85,9.05,775.712H16.5L33.013,236.227Z" transform="translate(3.602 93.883)" fill="#eee"/>
            <path d="M96.367,235.85l11.911,539.862h-7.438L84.33,236.227Z" transform="translate(33.569 93.883)"
                  fill="#eee"/>
            <path d="M37.278,236.227,24.5,775.712h8.934l11.8-539.862Z" transform="translate(9.753 93.883)"
                  fill="#e0e0e0"/>
            <path d="M80.731,236.227,93.523,775.712H84.576L72.79,235.85Z" transform="translate(28.975 93.883)"
                  fill="#e0e0e0"/>
            <rect width="67.764" height="8.193" transform="translate(44.682 804.067)" fill="#e0e0e0"/>
            <rect width="72.979" height="8.193" transform="translate(42.445 758.644)" fill="#e0e0e0"/>
            <rect width="70.742" height="8.193" transform="translate(44.682 713.962)" fill="#e0e0e0"/>
            <rect width="67.764" height="8.193" transform="translate(44.682 668.539)" fill="#e0e0e0"/>
            <rect width="67.764" height="7.452" transform="translate(44.682 621.634)" fill="#e0e0e0"/>
            <rect width="65.527" height="8.934" transform="translate(46.919 576.952)" fill="#e0e0e0"/>
            <rect width="63.29" height="5.956" transform="translate(46.919 532.27)" fill="#e0e0e0"/>
            <rect width="55.853" height="9.675" transform="translate(49.142 484.624)" fill="#e0e0e0"/>
            <rect width="58.075" height="8.193" transform="translate(49.142 439.942)" fill="#e0e0e0"/>
            <rect width="58.075" height="8.934" transform="translate(49.142 393.778)" fill="#e0e0e0"/>
            <rect width="52.875" height="8.934" transform="translate(52.12 348.355)" fill="#e0e0e0"/>
            <rect width="154.877" height="32.771" transform="translate(0 283.569)" fill="#4d8af0"/>
            <g transform="translate(26.655 53.126)" opacity="0.5">
                <path
                    d="M288.179,177l-53.867,35.091a10.15,10.15,0,0,0-3.5-5.508,8.906,8.906,0,0,0,.294-5.285,3.313,3.313,0,0,0-.573-1.4,2.363,2.363,0,0,0-2.111-.587l-8.556.559a4.488,4.488,0,0,0-2.8.811c-1.2,1.007-1.566,3.118-2.8,4.012-.825.587-1.873.531-2.8.993-1.971,1.049-2.4,4.194-2.558,6.753-.21,3.5-.2,7.605,2.083,9.786,1.664,1.552,3.97,1.4,6.068,1.286l2.111-.168a10.092,10.092,0,0,0,1.678.8v2.978h-.391s-24.145-6.99-50.666,66.044h-.461s-3.915,13.282,2.349,10.947c5.452-2.041,5.592-8.85,5.494-10.555h.363S188.5,261.513,205.694,257.6c0,0,12.513,15.63-7.815,46.891h15.91a24.284,24.284,0,0,0,2.069,10.164c4.684,9.381-9.381,98.479-9.381,98.479h11.73l5.9-29.527.741,29.527h8.6l8.6-56.775-1.174-68.393V270.251l1.566,2.083v-27.36H265.1l3.915-30.478h-.405a36.88,36.88,0,0,0-.266-6.375l29.22-6.138C302.16,182.452,288.179,177,288.179,177Zm-25.585,37.971-6.85,17.518s-18.762-8.6-25.794-5.466h-.391V223.3a10.15,10.15,0,0,0,5.047-8.081l28.171-5.914a17.852,17.852,0,0,0-.2,5.648Z"
                    transform="translate(-168.136 -177)" fill="url(#b)"/>
            </g>
            <path d="M240.4,210.356s.895-12.918-3.132-10.08-2.293,10.877-2.293,10.877Z"
                  transform="translate(-115.022 -114.771)" fill="#fda57d"/>
            <path d="M171.5,260.07s-3.719,12.652,2.237,10.43,5.215-10.43,5.215-10.43Z"
                  transform="translate(-140.599 -90.807)" fill="#fda57d"/>
            <rect width="8.193" height="7.452" transform="translate(80.053 101.499)" fill="#fda57d"/>
            <rect width="6.697" height="33.512" transform="translate(73.342 142.462)" fill="#4d8af0"/>
            <rect width="6.697" height="33.512" transform="translate(73.342 142.462)" opacity="0.1"/>
            <path
                d="M61.813,76.07h7.745A8.039,8.039,0,0,1,77.6,84.109v50.037H53.83V84.109a8.039,8.039,0,0,1,7.983-8.039Z"
                transform="translate(21.428 30.281)" fill="#fff"/>
            <circle cx="9.675" cy="9.675" r="9.675" transform="translate(73.72 84.751)" fill="#fda57d"/>
            <path
                d="M219.841,215.119s-23.082-6.7-48.4,63.29h7.452s10.43-30.534,26.8-34.253c0,0,11.911,14.889-7.452,44.738h15.644v-9.982a174.227,174.227,0,0,1,5.592-44.85,36.349,36.349,0,0,0,.364-18.944Z"
                transform="translate(-140.165 -108.769)" fill="#4299e1"/>
            <path
                d="M212.45,218.461V220.7s5.215,23.082,9.675,37.971L224.4,261.7V235.588H246l3.719-29.038h-5.956l-6.781,17.112S219.147,215.47,212.45,218.461Z"
                transform="translate(-123.841 -112.111)" fill="#4299e1"/>
            <path d="M205.4,256.626s-4.474,16.385,0,25.319-8.934,93.824-8.934,93.824h11.185l16.008-80.053,2.6-39.146Z"
                  transform="translate(-130.202 -92.2)" fill="#333"/>
            <path d="M76.035,117.61l1.118,65.15-8.193,53.993H60.768L57.79,117.61Z" transform="translate(23.004 46.816)"
                  fill="#333"/>
            <path
                d="M211.374,206.987a3.858,3.858,0,0,1,.727-.867,1.832,1.832,0,0,1,.923-.252c2.027-.168,4.362-.21,5.592-2.125a7.689,7.689,0,0,0,.615-5.592,3.145,3.145,0,0,0-.545-1.4,2.251,2.251,0,0,0-2.013-.559l-8.151.531a4.278,4.278,0,0,0-2.614.769c-1.146.965-1.482,2.964-2.684,3.831-.8.559-1.79.5-2.628.951-1.873.993-2.279,3.957-2.433,6.431-.2,3.327-.2,7.242,1.985,9.269,1.58,1.482,3.775,1.4,5.774,1.23l3.719-.308a1.72,1.72,0,0,0,1.049-.322,2.8,2.8,0,0,0,.5-2.223c-.1-1.873-.294-4-1.524-5.145a4.824,4.824,0,0,1-.8-.755C207.544,208.385,210.675,207.91,211.374,206.987Z"
                transform="translate(-129.56 -116.253)" fill="#333"/>
            <path d="M266.759,181s13.407,5.215,8.934,23.767L215.38,217.419v-2.978Z"
                  transform="translate(-122.675 -122.281)" fill="#2b6cb0"/>
            <rect width="104.994" height="2.978" transform="translate(24.941 315.962)" opacity="0.1"/>
            <rect width="8.193" height="1.496" transform="translate(42.068 525.951)" opacity="0.1"/>
            <rect width="8.193" height="1.496" transform="translate(106.113 525.951)" opacity="0.1"/>
            <rect width="104.994" height="12.652" transform="translate(24.578 513.662)" fill="#eee"/>
            <path
                d="M438.934,1.174,440.374.1,440,.112l.1-.112-.21.112L395.44,1.943l3.411,14.232L402.4,28.688l2.447-1.831,3.439,5.215Z"
                transform="translate(157.41)" fill="url(#c)"/>
            <path d="M398.89,15.429l3.258,11.464L437.63.54,404.021,7.069Z" transform="translate(158.783 0.215)"
                  fill="#4299e1"/>
            <path d="M398.89,15.429l3.258,11.464L437.63.54,404.021,7.069Z" transform="translate(158.783 0.215)"
                  opacity="0.2"/>
            <path d="M396.66,2.413,438.518.54l-38.74,14.889Z" transform="translate(157.895 0.215)" fill="#4299e1"/>
            <path d="M407.252,29.979,437.016.48,399.8,18.865Z" transform="translate(159.145 0.191)" fill="#4299e1"/>
            <path
                d="M350.452,61.531l1.146-.266-.238-.084.1-.042h-.168L324.182,50.57l-1.692,9.423-1.16,8.43,1.943-.447L323.958,72Z"
                transform="translate(127.909 20.13)" fill="url(#d)"/>
            <path d="M323.162,58.393,322.1,66.11l28.185-6.459L328.433,54.73Z" transform="translate(128.216 21.786)"
                  fill="#4299e1"/>
            <path d="M323.162,58.393,322.1,66.11l28.185-6.459L328.433,54.73Z" transform="translate(128.216 21.786)"
                  opacity="0.2"/>
            <path d="M324.412,51.18l25.571,9.884L322.86,59.806Z" transform="translate(128.518 20.373)" fill="#4299e1"/>
            <path d="M324.312,68.016,349.9,58.16,322.76,59.4Z" transform="translate(128.478 23.151)" fill="#4299e1"/>
            <g transform="translate(706.594 207.542)" opacity="0.3">
                <path
                    d="M548.9,149.624l1.426-1.076-.377.014.112-.112-.224.112-44.43,1.831,3.411,14.232,3.551,12.527,2.433-1.845,3.453,5.229Z"
                    transform="translate(-505.41 -148.45)" fill="url(#e)"/>
                <path d="M508.85,163.879l3.257,11.464,35.5-26.353-33.623,6.529Z"
                      transform="translate(-504.041 -148.235)" fill="#4299e1"/>
                <path d="M508.85,163.879l3.257,11.464,35.5-26.353-33.623,6.529Z"
                      transform="translate(-504.041 -148.235)" opacity="0.2"/>
                <path d="M506.62,150.863l41.872-1.873-38.754,14.889Z" transform="translate(-504.928 -148.235)"
                      fill="#4299e1"/>
                <path d="M517.212,178.425l29.765-29.485L509.76,167.311Z" transform="translate(-503.678 -148.255)"
                      fill="#4299e1"/>
            </g>
            <g transform="translate(1072.495 284.422)" opacity="0.3">
                <path
                    d="M810.61,204.614l1.44-1.09-.377.014.112-.1-.224.1-44.43,1.831,3.411,14.232,3.537,12.527,2.447-1.831,3.439,5.215Z"
                    transform="translate(-767.13 -203.44)" fill="url(#f)"/>
                <path d="M770.57,218.873l3.258,11.45L809.31,203.97,775.7,210.5Z"
                      transform="translate(-765.761 -203.229)" fill="#4299e1"/>
                <path d="M770.57,218.873l3.258,11.45L809.31,203.97,775.7,210.5Z"
                      transform="translate(-765.761 -203.229)" opacity="0.2"/>
                <path d="M768.34,205.857,810.2,203.97l-38.74,14.9Z" transform="translate(-766.648 -203.229)"
                      fill="#4299e1"/>
                <path d="M778.932,233.419l29.765-29.5L771.48,222.291Z" transform="translate(-765.398 -203.249)"
                      fill="#4299e1"/>
            </g>
            <g transform="translate(453.853 195.225)" opacity="0.5">
                <path
                    d="M353.752,150.615l1.146-.28-.238-.084.1-.042-.168.014L327.482,139.64l-1.692,9.423-1.16,8.444,1.929-.461.7,4.026Z"
                    transform="translate(-324.63 -139.64)" fill="url(#g)"/>
                <path d="M326.463,147.463,325.4,155.18l28.185-6.459L331.733,143.8Z"
                      transform="translate(-324.323 -137.984)" fill="#4299e1"/>
                <path d="M326.463,147.463,325.4,155.18l28.185-6.459L331.733,143.8Z"
                      transform="translate(-324.323 -137.984)" opacity="0.2"/>
                <path d="M327.712,140.25l25.571,9.884-27.122-1.258Z" transform="translate(-324.021 -139.397)"
                      fill="#4299e1"/>
                <path d="M327.612,157.1,353.2,147.24l-27.136,1.23Z" transform="translate(-324.061 -136.615)"
                      fill="#4299e1"/>
            </g>
            <g transform="translate(956.568 378.176)" opacity="0.5">
                <path
                    d="M713.332,281.461l1.146-.266-.224-.1.084-.028h-.168L687.076,270.5l-1.706,9.423-1.16,8.43,1.943-.461.7,4.04Z"
                    transform="translate(-684.21 -270.5)" fill="url(#h)"/>
                <path d="M686.038,278.323l-1.048,7.717,28.185-6.459-21.866-4.921Z"
                      transform="translate(-683.9 -268.844)" fill="#4299e1"/>
                <path d="M686.038,278.323l-1.048,7.717,28.185-6.459-21.866-4.921Z"
                      transform="translate(-683.9 -268.844)" opacity="0.2"/>
                <path d="M687.292,271.11l25.585,9.884-27.136-1.258Z" transform="translate(-683.601 -270.257)"
                      fill="#4299e1"/>
                <path d="M687.188,287.946l25.585-9.856-27.122,1.244Z" transform="translate(-683.637 -267.479)"
                      fill="#4299e1"/>
            </g>
            <g transform="translate(925.824 184.46)" opacity="0.5">
                <path
                    d="M691.342,142.915l1.146-.28-.238-.084.1-.042-.168.014L665.072,131.94l-1.692,9.423-1.16,8.444,1.943-.461.7,4.026Z"
                    transform="translate(-662.22 -131.94)" fill="url(#i)"/>
                <path d="M664.052,139.763l-1.062,7.717,28.2-6.459L669.323,136.1Z"
                      transform="translate(-661.913 -130.284)" fill="#4299e1"/>
                <path d="M664.052,139.763l-1.062,7.717,28.2-6.459L669.323,136.1Z"
                      transform="translate(-661.913 -130.284)" opacity="0.2"/>
                <path d="M665.3,132.56l25.585,9.87-27.136-1.258Z" transform="translate(-661.611 -131.693)"
                      fill="#4299e1"/>
                <path d="M665.2,149.4l25.585-9.856-27.136,1.23Z" transform="translate(-661.651 -128.915)"
                      fill="#4299e1"/>
            </g>
            <g transform="translate(1181.027 23.04)" opacity="0.2">
                <path
                    d="M873.882,27.441l1.146-.266-.224-.084.084-.042-.168.014L847.612,16.48,845.92,25.9l-1.161,8.444,1.943-.461.7,4.026Z"
                    transform="translate(-844.76 -16.48)" fill="url(#j)"/>
                <path d="M846.592,24.3,845.53,32.02l28.2-6.459L851.863,20.64Z" transform="translate(-844.453 -14.824)"
                      fill="#4299e1"/>
                <path d="M846.592,24.3,845.53,32.02l28.2-6.459L851.863,20.64Z" transform="translate(-844.453 -14.824)"
                      opacity="0.2"/>
                <path d="M847.842,17.09l25.585,9.884L846.29,25.716Z" transform="translate(-844.151 -16.237)"
                      fill="#4299e1"/>
                <path d="M847.738,33.94l25.584-9.87L846.2,25.314Z" transform="translate(-844.187 -13.459)"
                      fill="#4299e1"/>
            </g>
            <path
                d="M594.064,39.069l1.594-.825-.378-.056.126-.084-.238.07-44.109-5.7.965,14.61,1.384,12.946,2.712-1.412,2.516,5.732Z"
                transform="translate(219.356 12.925)" fill="url(#k)"/>
            <path d="M552.8,45.037l1.272,11.842L593.5,36.9l-34.225.755Z" transform="translate(220.049 14.688)"
                  fill="#4299e1"/>
            <path d="M552.8,45.037l1.272,11.842L593.5,36.9l-34.225.755Z" transform="translate(220.049 14.688)"
                  opacity="0.2"/>
            <path d="M552.17,33.16l41.578,5.229-40.7,8.137Z" transform="translate(219.798 13.2)" fill="#4299e1"/>
            <path d="M558.756,60.857,593.079,36.81,553.29,48.638Z" transform="translate(220.244 14.653)"
                  fill="#4299e1"/>
            <path
                d="M685.009,216.816l4.11.252-.685-.531.349-.028-.559-.14-79.969-62.9-15.239,29.807L580.56,210.343l6.976.419-1.762,14.2Z"
                transform="translate(231.099 61.091)" fill="url(#l)"/>
            <path d="M595.006,177.6l-11.366,24.76,100.884,6.976L616.383,170.69Z" transform="translate(232.325 67.945)"
                  fill="#4299e1"/>
            <path d="M595.006,177.6l-11.366,24.76,100.884,6.976L616.383,170.69Z" transform="translate(232.325 67.945)"
                  opacity="0.2"/>
            <path d="M605.709,156.13l75.579,59L591.77,183.392Z" transform="translate(235.561 62.149)" fill="#4299e1"/>
            <path d="M587.17,211.642l95.627-7.018-92.048-23.4Z" transform="translate(233.73 72.137)" fill="#4299e1"/>
            <path
                d="M957.909,405.343l8.6.28-1.454-1.076.7-.084-1.16-.252L793.693,277.98l-29.919,63.192L739.49,398.437l14.568.461-2.768,29.737Z"
                transform="translate(294.363 110.653)" fill="url(#m)"/>
            <path d="M768.033,329.284l-22.173,52.4,211.023,8.179L812.2,313.5Z" transform="translate(296.898 124.792)"
                  fill="#4299e1"/>
            <path d="M768.033,329.284l-22.173,52.4,211.023,8.179L812.2,313.5Z" transform="translate(296.898 124.792)"
                  opacity="0.2"/>
            <path d="M789.08,283.45,950.57,401.824,761.72,341.246Z" transform="translate(303.212 112.831)"
                  fill="#4299e1"/>
            <path d="M753.85,400.3l199.14-20.705-193.59-43Z" transform="translate(300.079 133.984)" fill="#4299e1"/>
            <path
                d="M818.823,30.944l3.747-1.706-.853-.154.293-.182-.559.14-100.1-18.2.475,33.484,1.636,29.737,6.361-2.88,5.089,13.379Z"
                transform="translate(287.142 4.315)" fill="url(#n)"/>
            <path d="M724.12,39.036l1.524,27.206,92.44-41.019L739.778,22.93Z" transform="translate(288.245 9.128)"
                  fill="#4299e1"/>
            <path d="M724.12,39.036l1.524,27.206,92.44-41.019L739.778,22.93Z" transform="translate(288.245 9.128)"
                  opacity="0.2"/>
            <path d="M723.81,12.55l94.4,16.8L724.243,43.168Z" transform="translate(288.121 4.996)" fill="#4299e1"/>
            <path d="M735.989,75.281,817.23,24.35l-92.3,22.369Z" transform="translate(288.567 9.693)" fill="#4299e1"/>
            <path
                d="M894.689,111.214l3.761-1.692-.853-.154.28-.2-.545.14-100.1-18.2.475,33.484,1.636,29.737,6.361-2.866,5.089,13.365Z"
                transform="translate(317.347 36.267)" fill="url(#o)"/>
            <path d="M800,119.316l1.51,27.206L893.95,105.5l-78.305-2.293Z" transform="translate(318.449 41.084)"
                  fill="#4299e1"/>
            <path d="M800,119.316l1.51,27.206L893.95,105.5l-78.305-2.293Z" transform="translate(318.449 41.084)"
                  opacity="0.2"/>
            <path d="M799.68,92.83l94.4,16.8-93.95,13.813Z" transform="translate(318.322 36.952)" fill="#4299e1"/>
            <path d="M811.869,155.547,893.1,104.63,800.81,126.985Z" transform="translate(318.772 41.649)"
                  fill="#4299e1"/>
            <path
                d="M494.79,102.6l1.608-.825-.378-.042.112-.084-.238.07L451.8,96.02l.965,14.6,1.37,12.946,2.712-1.4,2.517,5.732Z"
                transform="translate(179.844 38.222)" fill="url(#p)"/>
            <path d="M453.54,108.587l1.272,11.828,39.425-19.964-34.224.755Z" transform="translate(180.537 39.985)"
                  fill="#4299e1"/>
            <path d="M453.54,108.587l1.272,11.828,39.425-19.964-34.224.755Z" transform="translate(180.537 39.985)"
                  opacity="0.2"/>
            <path d="M452.91,96.71l41.578,5.229-40.7,8.137Z" transform="translate(180.286 38.497)" fill="#4299e1"/>
            <path d="M459.486,124.407l34.322-24.047L454.02,112.188Z" transform="translate(180.728 39.949)"
                  fill="#4299e1"/>
            <path
                d="M685.03,88.319l1.594-.825-.364-.056.112-.084-.238.07-44.095-5.7.951,14.61,1.384,12.946,2.712-1.4L649.6,113.6Z"
                transform="translate(255.572 32.53)" fill="url(#q)"/>
            <path d="M643.78,94.287l1.272,11.842L684.478,86.15l-34.225.755Z" transform="translate(256.264 34.293)"
                  fill="#4299e1"/>
            <path d="M643.78,94.287l1.272,11.842L684.478,86.15l-34.225.755Z" transform="translate(256.264 34.293)"
                  opacity="0.2"/>
            <path d="M643.15,82.42l41.578,5.215-40.7,8.137Z" transform="translate(256.013 32.808)" fill="#4299e1"/>
            <path d="M649.726,110.107,684.049,86.06,644.26,97.9Z" transform="translate(256.455 34.257)" fill="#4299e1"/>
        </g>
    </g>
</svg>
